\babel@toc {spanish}{}
\contentsline {chapter}{\numberline {1}Introducci\IeC {\'o}n}{4}{chapter.1}
\contentsline {section}{\numberline {1.1}Elementos de curr\IeC {\'\i }culo}{4}{section.1.1}
\contentsline {section}{\numberline {1.2}Normativa}{5}{section.1.2}
\contentsline {section}{\numberline {1.3}Contenidos de la programaci\IeC {\'o}n de la ESO}{5}{section.1.3}
\contentsline {section}{\numberline {1.4}Contenidos de la programaci\IeC {\'o}n de Bachillerato}{7}{section.1.4}
\contentsline {chapter}{\numberline {2}Programaci\IeC {\'o}n de la ESO}{9}{chapter.2}
\contentsline {section}{\numberline {2.1}Objetivos generales de la ESO}{9}{section.2.1}
\contentsline {section}{\numberline {2.2}Competencias espec\IeC {\'\i }ficas y criterios de evaluaci\IeC {\'o}n}{10}{section.2.2}
\contentsline {subsection}{\numberline {2.2.1}Matem\IeC {\'a}ticas de 1\IeC {\textordmasculine } a 3\IeC {\textordmasculine } ESO}{10}{subsection.2.2.1}
\contentsline {subsubsection}{\numberline {2.2.1.1}CE.M.1. Interpretar, modelizar y resolver problemas de la vida cotidiana y propios de las matem\IeC {\'a}ticas, aplicando diferentes estrategias y formas de razonamiento, para explorar distintas maneras de proceder y obtener posibles soluciones.}{10}{subsubsection.2.2.1.1}
\contentsline {subsubsection}{\numberline {2.2.1.2}CE.M.2. Analizar las soluciones de un problema usando diferentes t\IeC {\'e}cnicas y herramientas, evaluando las respuestas obtenidas, para verificar su validez e idoneidad desde un punto de vista matem\IeC {\'a}tico y su repercusi\IeC {\'o}n global.}{10}{subsubsection.2.2.1.2}
\contentsline {subsubsection}{\numberline {2.2.1.3}CE.M.3. Formular y comprobar conjeturas sencillas o plantear problemas de forma aut\IeC {\'o}noma, reconociendo el valor del razonamiento y la argumentaci\IeC {\'o}n, para generar nuevo conocimiento.}{10}{subsubsection.2.2.1.3}
\contentsline {subsubsection}{\numberline {2.2.1.4}CE.M.4. Utilizar los principios del pensamiento computacional organizando datos, descomponiendo en partes, reconociendo patrones, interpretando, modificando y creando algoritmos para modelizar situaciones y resolver problemas de forma eficaz.}{11}{subsubsection.2.2.1.4}
\contentsline {subsubsection}{\numberline {2.2.1.5}CE.M.5. Reconocer y utilizar conexiones entre los diferentes elementos matem\IeC {\'a}ticos, interconectando conceptos y procedimientos, para desarrollar una visi\IeC {\'o}n de las matem\IeC {\'a}ticas como un todo integrado.}{11}{subsubsection.2.2.1.5}
\contentsline {subsubsection}{\numberline {2.2.1.6}CE.M.6. Identificar las matem\IeC {\'a}ticas implicadas en otras materias y en situaciones reales susceptibles de ser abordadas en t\IeC {\'e}rminos matem\IeC {\'a}ticos, interrelacionando conceptos y procedimientos, para aplicarlos en situaciones diversas.}{11}{subsubsection.2.2.1.6}
\contentsline {subsubsection}{\numberline {2.2.1.7}CE.M.7. Representar, de forma individual y colectiva, conceptos, procedimientos, informaci\IeC {\'o}n y resultados matem\IeC {\'a}ticos, usando diferentes tecnolog\IeC {\'\i }as, para visualizar ideas y estructurar procesos matem\IeC {\'a}ticos.}{11}{subsubsection.2.2.1.7}
\contentsline {subsubsection}{\numberline {2.2.1.8}CE.M.8. Comunicar de forma individual y colectiva conceptos, procedimientos y argumentos matem\IeC {\'a}ticos, usando lenguaje oral, escrito o gr\IeC {\'a}fico, utilizando la terminolog\IeC {\'\i }a matem\IeC {\'a}tica apropiada, para dar significado y coherencia a las ideas matem\IeC {\'a}ticas.}{11}{subsubsection.2.2.1.8}
\contentsline {subsubsection}{\numberline {2.2.1.9}CE.M.9. Desarrollar destrezas personales, identificando y gestionando emociones, poniendo en pr\IeC {\'a}ctica estrategias de aceptaci\IeC {\'o}n del error como parte del proceso de aprendizaje y adapt\IeC {\'a}ndose ante situaciones de incertidumbre, para mejorar la perseverancia en la consecuci\IeC {\'o}n de objetivos y el disfrute en el aprendizaje de las matem\IeC {\'a}ticas.}{12}{subsubsection.2.2.1.9}
\contentsline {subsubsection}{\numberline {2.2.1.10}CE.M.10. Desarrollar destrezas sociales reconociendo y respetando las emociones y experiencias de los dem\IeC {\'a}s, participando activa y reflexivamente en proyectos en equipos heterog\IeC {\'e}neos con roles asignados para construir una identidad positiva como estudiante de matem\IeC {\'a}ticas, fomentar el bienestar personal y crear relaciones saludables.}{12}{subsubsection.2.2.1.10}
\contentsline {subsection}{\numberline {2.2.2}Matem\IeC {\'a}ticas A 4\IeC {\textordmasculine } ESO}{12}{subsection.2.2.2}
\contentsline {subsubsection}{\numberline {2.2.2.1}CE.M.1. Interpretar, modelizar y resolver problemas de la vida cotidiana y propios de las matem\IeC {\'a}ticas, aplicando diferentes estrategias y formas de razonamiento, para explorar distintas maneras de proceder y obtener posibles soluciones.}{12}{subsubsection.2.2.2.1}
\contentsline {subsubsection}{\numberline {2.2.2.2}CE.M.2. Analizar las soluciones de un problema usando diferentes t\IeC {\'e}cnicas y herramientas, evaluando las respuestas obtenidas, para verificar su validez e idoneidad desde un punto de vista matem\IeC {\'a}tico y su repercusi\IeC {\'o}n global.}{12}{subsubsection.2.2.2.2}
\contentsline {subsubsection}{\numberline {2.2.2.3}CE.M.3. Formular y comprobar conjeturas sencillas o plantear problemas de forma aut\IeC {\'o}noma, reconociendo el valor del razonamiento y la argumentaci\IeC {\'o}n, para generar nuevo conocimiento.}{13}{subsubsection.2.2.2.3}
\contentsline {subsubsection}{\numberline {2.2.2.4}CE.M.4. Utilizar los principios del pensamiento computacional organizando datos, descomponiendo en partes, reconociendo patrones, interpretando, modificando y creando algoritmos para modelizar situaciones y resolver problemas de forma eficaz.}{13}{subsubsection.2.2.2.4}
\contentsline {subsubsection}{\numberline {2.2.2.5}CE.M.5. Reconocer y utilizar conexiones entre los diferentes elementos matem\IeC {\'a}ticos, interconectando conceptos y procedimientos, para desarrollar una visi\IeC {\'o}n de las matem\IeC {\'a}ticas como un todo integrado.}{13}{subsubsection.2.2.2.5}
\contentsline {subsubsection}{\numberline {2.2.2.6}CE.M.6. Identificar las matem\IeC {\'a}ticas implicadas en otras materias y en situaciones reales susceptibles de ser abordadas en t\IeC {\'e}rminos matem\IeC {\'a}ticos, interrelacionando conceptos y procedimientos, para aplicarlos en situaciones diversas.}{13}{subsubsection.2.2.2.6}
\contentsline {subsubsection}{\numberline {2.2.2.7}CE.M.7. Representar, de forma individual y colectiva, conceptos, procedimientos, informaci\IeC {\'o}n y resultados matem\IeC {\'a}ticos, usando diferentes tecnolog\IeC {\'\i }as, para visualizar ideas y estructurar procesos matem\IeC {\'a}ticos.}{13}{subsubsection.2.2.2.7}
\contentsline {subsubsection}{\numberline {2.2.2.8}CE.M.8. Comunicar de forma individual y colectiva conceptos, procedimientos y argumentos matem\IeC {\'a}ticos, usando lenguaje oral, escrito o gr\IeC {\'a}fico, utilizando la terminolog\IeC {\'\i }a matem\IeC {\'a}tica apropiada, para dar significado y coherencia a las ideas matem\IeC {\'a}ticas.}{14}{subsubsection.2.2.2.8}
\contentsline {subsubsection}{\numberline {2.2.2.9}CE.M.9. Desarrollar destrezas personales, identificando y gestionando emociones, poniendo en pr\IeC {\'a}ctica estrategias de aceptaci\IeC {\'o}n del error como parte del proceso de aprendizaje y adapt\IeC {\'a}ndose ante situaciones de incertidumbre, para mejorar la perseverancia en la consecuci\IeC {\'o}n de objetivos y el disfrute en el aprendizaje de las matem\IeC {\'a}ticas.}{14}{subsubsection.2.2.2.9}
\contentsline {subsubsection}{\numberline {2.2.2.10}CE.M.10. Desarrollar destrezas sociales reconociendo y respetando las emociones y experiencias de los dem\IeC {\'a}s, participando activa y reflexivamente en proyectos en equipos heterog\IeC {\'e}neos con roles asignados para construir una identidad positiva como estudiante de matem\IeC {\'a}ticas, fomentar el bienestar personal y crear relaciones saludables.}{14}{subsubsection.2.2.2.10}
\contentsline {subsection}{\numberline {2.2.3}Matem\IeC {\'a}ticas B 4\IeC {\textordmasculine } ESO}{14}{subsection.2.2.3}
\contentsline {subsubsection}{\numberline {2.2.3.1}CE.M.1. Interpretar, modelizar y resolver problemas de la vida cotidiana y propios de las matem\IeC {\'a}ticas, aplicando diferentes estrategias y formas de razonamiento, para explorar distintas maneras de proceder y obtener posibles soluciones.}{14}{subsubsection.2.2.3.1}
\contentsline {subsubsection}{\numberline {2.2.3.2}CE.M.2. Analizar las soluciones de un problema usando diferentes t\IeC {\'e}cnicas y herramientas, evaluando las respuestas obtenidas, para verificar su validez e idoneidad desde un punto de vista matem\IeC {\'a}tico y su repercusi\IeC {\'o}n global.}{15}{subsubsection.2.2.3.2}
\contentsline {subsubsection}{\numberline {2.2.3.3}CE.M.3. Formular y comprobar conjeturas sencillas o plantear problemas de forma aut\IeC {\'o}noma, reconociendo el valor del razonamiento y la argumentaci\IeC {\'o}n, para generar nuevo conocimiento.}{15}{subsubsection.2.2.3.3}
\contentsline {subsubsection}{\numberline {2.2.3.4}CE.M.4. Utilizar los principios del pensamiento computacional organizando datos, descomponiendo en partes, reconociendo patrones, interpretando, modificando y creando algoritmos para modelizar situaciones y resolver problemas de forma eficaz.}{15}{subsubsection.2.2.3.4}
\contentsline {subsubsection}{\numberline {2.2.3.5}CE.M.5. Reconocer y utilizar conexiones entre los diferentes elementos matem\IeC {\'a}ticos, interconectando conceptos y procedimientos, para desarrollar una visi\IeC {\'o}n de las matem\IeC {\'a}ticas como un todo integrado.}{15}{subsubsection.2.2.3.5}
\contentsline {subsubsection}{\numberline {2.2.3.6}CE.M.6. Identificar las matem\IeC {\'a}ticas implicadas en otras materias y en situaciones reales susceptibles de ser abordadas en t\IeC {\'e}rminos matem\IeC {\'a}ticos, interrelacionando conceptos y procedimientos, para aplicarlos en situaciones diversas.}{15}{subsubsection.2.2.3.6}
\contentsline {subsubsection}{\numberline {2.2.3.7}CE.M.7. Representar, de forma individual y colectiva, conceptos, procedimientos, informaci\IeC {\'o}n y resultados matem\IeC {\'a}ticos, usando diferentes tecnolog\IeC {\'\i }as, para visualizar ideas y estructurar procesos matem\IeC {\'a}ticos.}{16}{subsubsection.2.2.3.7}
\contentsline {subsubsection}{\numberline {2.2.3.8}CE.M.8. Comunicar de forma individual y colectiva conceptos, procedimientos y argumentos matem\IeC {\'a}ticos, usando lenguaje oral, escrito o gr\IeC {\'a}fico, utilizando la terminolog\IeC {\'\i }a matem\IeC {\'a}tica apropiada, para dar significado y coherencia a las ideas matem\IeC {\'a}ticas.}{16}{subsubsection.2.2.3.8}
\contentsline {subsubsection}{\numberline {2.2.3.9}CE.M.9. Desarrollar destrezas personales, identificando y gestionando emociones, poniendo en pr\IeC {\'a}ctica estrategias de aceptaci\IeC {\'o}n del error como parte del proceso de aprendizaje y adapt\IeC {\'a}ndose ante situaciones de incertidumbre, para mejorar la perseverancia en la consecuci\IeC {\'o}n de objetivos y el disfrute en el aprendizaje de las matem\IeC {\'a}ticas.}{16}{subsubsection.2.2.3.9}
\contentsline {subsubsection}{\numberline {2.2.3.10}CE.M.10. Desarrollar destrezas sociales reconociendo y respetando las emociones y experiencias de los dem\IeC {\'a}s, participando activa y reflexivamente en proyectos en equipos heterog\IeC {\'e}neos con roles asignados para construir una identidad positiva como estudiante de matem\IeC {\'a}ticas, fomentar el bienestar personal y crear relaciones saludables.}{16}{subsubsection.2.2.3.10}
\contentsline {subsection}{\numberline {2.2.4}Laboratorio de refuerzo de competencias clave, 1\IeC {\textordmasculine }ESO}{17}{subsection.2.2.4}
\contentsline {subsubsection}{\numberline {2.2.4.1}CE.LRCV.1. Comprender e interpretar textos orales, escritos y multimodales, con sentido cr\IeC {\'\i }tico, recogiendo el sentido global y la informaci\IeC {\'o}n m\IeC {\'a}s relevante, identificando el punto de vista y la intenci\IeC {\'o}n del emisor y valorando su fiabilidad, su forma y su contenido, para construir conocimiento, dar respuesta a necesidades e intereses comunicativos diversos, formarse opini\IeC {\'o}n y para ensanchar las posibilidades de disfrute y ocio.}{17}{subsubsection.2.2.4.1}
\contentsline {subsubsection}{\numberline {2.2.4.2}CE.LRCV.2. Producir textos orales, escritos y multimodales con fluidez, coherencia, cohesi\IeC {\'o}n y registro adecuado, atendiendo a las convenciones propias del g\IeC {\'e}nero discursivo elegido, y participar en interacciones orales con actitud cooperativa y respetuosa, tanto para construir conocimiento y establecer v\IeC {\'\i }nculos personales como para dar respuesta de manera informada, eficaz y creativa a diferentes situaciones comunicativas.}{17}{subsubsection.2.2.4.2}
\contentsline {subsubsection}{\numberline {2.2.4.3}CE.LRCV.3. Resolver problemas en contextos variados, tanto matem\IeC {\'a}ticos como de fuera de las matem\IeC {\'a}ticas, siempre que sean cercanos y significativos, adoptando una actitud flexible a partir del uso de estrategias diversas y reflexionar sobre el propio proceso de resoluci\IeC {\'o}n, as\IeC {\'\i } como construir y reconstruir conocimiento matem\IeC {\'a}tico a trav\IeC {\'e}s de la resoluci\IeC {\'o}n de dichos problemas.}{17}{subsubsection.2.2.4.3}
\contentsline {subsubsection}{\numberline {2.2.4.4}CE.LRCV.4. Apreciar y reconocer el valor del razonamiento, la argumentaci\IeC {\'o}n y la prueba, a partir de la elaboraci\IeC {\'o}n de conjeturas y la indagaci\IeC {\'o}n sobre ellas, de la argumentaci\IeC {\'o}n propia y de la evaluaci\IeC {\'o}n de argumentaciones de otros.}{18}{subsubsection.2.2.4.4}
\contentsline {subsubsection}{\numberline {2.2.4.5}CE.LRCV.5. Utilizar el lenguaje matem\IeC {\'a}tico en sus diversos registros y representaciones para comunicar ideas matem\IeC {\'a}ticas de forma precisa, analizar y evaluar el pensamiento matem\IeC {\'a}tico de otros, organizando el pensamiento matem\IeC {\'a}tico propio en el proceso.}{18}{subsubsection.2.2.4.5}
\contentsline {subsubsection}{\numberline {2.2.4.6}CE.LRCV.6. Reconocer y emplear conexiones entre las ideas matem\IeC {\'a}ticas, comprendiendo c\IeC {\'o}mo estas se interconectan, as\IeC {\'\i } como identificar las matem\IeC {\'a}ticas que aparecen en los m\IeC {\'a}s diversos contextos.}{18}{subsubsection.2.2.4.6}
\contentsline {subsection}{\numberline {2.2.5}Laboratorio de refuerzo de competencias clave, 2\IeC {\textordmasculine }ESO}{18}{subsection.2.2.5}
\contentsline {subsubsection}{\numberline {2.2.5.1}CE.LRCV.1. Comprender e interpretar textos orales, escritos y multimodales, con sentido cr\IeC {\'\i }tico, recogiendo el sentido global y la informaci\IeC {\'o}n m\IeC {\'a}s relevante, identificando el punto de vista y la intenci\IeC {\'o}n del emisor y valorando su fiabilidad, su forma y su contenido, para construir conocimiento, dar respuesta a necesidades e intereses comunicativos diversos, formarse opini\IeC {\'o}n y para ensanchar las posibilidades de disfrute y ocio.}{18}{subsubsection.2.2.5.1}
\contentsline {subsubsection}{\numberline {2.2.5.2}CE.LRCV.2. Producir textos orales, escritos y multimodales con fluidez, coherencia, cohesi\IeC {\'o}n y registro adecuado, atendiendo a las convenciones propias del g\IeC {\'e}nero discursivo elegido, y participar en interacciones orales con actitud cooperativa y respetuosa, tanto para construir conocimiento y establecer v\IeC {\'\i }nculos personales como para dar respuesta de manera informada, eficaz y creativa a diferentes situaciones comunicativas.}{19}{subsubsection.2.2.5.2}
\contentsline {subsubsection}{\numberline {2.2.5.3}CE.LRCV.3. Resolver problemas en contextos variados, tanto matem\IeC {\'a}ticos como de fuera de las matem\IeC {\'a}ticas, siempre que sean cercanos y significativos, adoptando una actitud flexible a partir del uso de estrategias diversas y reflexionar sobre el propio proceso de resoluci\IeC {\'o}n, as\IeC {\'\i } como construir y reconstruir conocimiento matem\IeC {\'a}tico a trav\IeC {\'e}s de la resoluci\IeC {\'o}n de dichos problemas.}{19}{subsubsection.2.2.5.3}
\contentsline {subsubsection}{\numberline {2.2.5.4}CE.LRCV.4. Apreciar y reconocer el valor del razonamiento, la argumentaci\IeC {\'o}n y la prueba, a partir de la elaboraci\IeC {\'o}n de conjeturas y la indagaci\IeC {\'o}n sobre ellas, de la argumentaci\IeC {\'o}n propia y de la evaluaci\IeC {\'o}n de argumentaciones de otros.}{19}{subsubsection.2.2.5.4}
\contentsline {subsubsection}{\numberline {2.2.5.5}CE.LRCV.5. Utilizar el lenguaje matem\IeC {\'a}tico en sus diversos registros y representaciones para comunicar ideas matem\IeC {\'a}ticas de forma precisa, analizar y evaluar el pensamiento matem\IeC {\'a}tico de otros, organizando el pensamiento matem\IeC {\'a}tico propio en el proceso.}{19}{subsubsection.2.2.5.5}
\contentsline {subsubsection}{\numberline {2.2.5.6}CE.LRCV.6. Reconocer y emplear conexiones entre las ideas matem\IeC {\'a}ticas, comprendiendo c\IeC {\'o}mo estas se interconectan, as\IeC {\'\i } como identificar las matem\IeC {\'a}ticas que aparecen en los m\IeC {\'a}s diversos contextos.}{20}{subsubsection.2.2.5.6}
\contentsline {subsection}{\numberline {2.2.6}Matem\IeC {\'a}ticas para la toma de decisiones}{20}{subsection.2.2.6}
\contentsline {subsubsection}{\numberline {2.2.6.1}CE.MTD.1. Reconocer la importancia de la aritm\IeC {\'e}tica modular en un contexto tecnol\IeC {\'o}gico y digital, comprendiendo la necesidad y los fundamentos b\IeC {\'a}sicos de algoritmos de codificaci\IeC {\'o}n sencillos y siendo capaz de aplicarlos de forma efectiva en situaciones concretas.}{20}{subsubsection.2.2.6.1}
\contentsline {subsubsection}{\numberline {2.2.6.2}CE.MTD.2. Identificar la utilidad de la teor\IeC {\'\i }a de grafos para modelizar situaciones y problemas reales de la vida cotidiana y de materias del \IeC {\'a}mbito cient\IeC {\'\i }fico y tecnol\IeC {\'o}gico, emple\IeC {\'a}ndola para explorar distintas formas de proceder y para obtener y comunicar posibles soluciones.}{20}{subsubsection.2.2.6.2}
\contentsline {subsubsection}{\numberline {2.2.6.3}CE.MTD.3. Utilizar la teor\IeC {\'\i }a de juegos para modelizar situaciones y problemas reales de la vida cotidiana y de materias del \IeC {\'a}mbito de las ciencias sociales y de la econom\IeC {\'\i }a, reconociendo su aplicaci\IeC {\'o}n a la toma de decisiones y obteniendo y expresando soluciones posibles en situaciones diversas.}{21}{subsubsection.2.2.6.3}
\contentsline {subsubsection}{\numberline {2.2.6.4}CE.MTD.4. Emplear herramientas de c\IeC {\'a}lculo simb\IeC {\'o}lico u otras herramientas digitales para representar resultados y procedimientos, explorar, conjeturar y comprobar propiedades, y resolver problemas, desarrollando e implementando algoritmos matem\IeC {\'a}ticos sencillos.}{21}{subsubsection.2.2.6.4}
\contentsline {section}{\numberline {2.3}Concreci\IeC {\'o}n, agrupamiento y secuenciaci\IeC {\'o}n de los saberes b\IeC {\'a}sicos y de los criterios de evaluaci\IeC {\'o}n en unidades did\IeC {\'a}cticas}{21}{section.2.3}
\contentsline {subsection}{\numberline {2.3.1}1\IeC {\textordmasculine }ESO Matem\IeC {\'a}ticas}{21}{subsection.2.3.1}
\contentsline {subsubsection}{\numberline {2.3.1.1}Unidad 1. Los n\IeC {\'u}meros naturales}{21}{subsubsection.2.3.1.1}
\contentsline {subsubsection}{\numberline {2.3.1.2}Unidad 2. Potencias y ra\IeC {\'\i }ces}{22}{subsubsection.2.3.1.2}
\contentsline {subsubsection}{\numberline {2.3.1.3}Unidad 3. Divisibilidad}{23}{subsubsection.2.3.1.3}
\contentsline {subsubsection}{\numberline {2.3.1.4}Unidad 4. Los n\IeC {\'u}meros enteros}{24}{subsubsection.2.3.1.4}
\contentsline {subsubsection}{\numberline {2.3.1.5}Unidad 5. Los n\IeC {\'u}meros decimales}{25}{subsubsection.2.3.1.5}
\contentsline {subsubsection}{\numberline {2.3.1.6}Unidad 6. Las fracciones}{26}{subsubsection.2.3.1.6}
\contentsline {subsubsection}{\numberline {2.3.1.7}Unidad 7. Operaciones con fracciones}{27}{subsubsection.2.3.1.7}
\contentsline {subsubsection}{\numberline {2.3.1.8}Unidad 8. Proporcionalidad y porcentajes}{28}{subsubsection.2.3.1.8}
\contentsline {subsubsection}{\numberline {2.3.1.9}Unidad 9. \IeC {\'A}lgebra}{30}{subsubsection.2.3.1.9}
\contentsline {subsubsection}{\numberline {2.3.1.10}Unidad 10. Rectas y \IeC {\'a}ngulos}{30}{subsubsection.2.3.1.10}
\contentsline {subsubsection}{\numberline {2.3.1.11}Unidad 11. Figuras geom\IeC {\'e}tricas}{31}{subsubsection.2.3.1.11}
\contentsline {subsubsection}{\numberline {2.3.1.12}Unidad 12. El sistema m\IeC {\'e}trico decimal}{31}{subsubsection.2.3.1.12}
\contentsline {subsubsection}{\numberline {2.3.1.13}Unidad 13. \IeC {\'A}reas y per\IeC {\'\i }metros}{32}{subsubsection.2.3.1.13}
\contentsline {subsubsection}{\numberline {2.3.1.14}Unidad 14. Gr\IeC {\'a}ficas de funciones}{33}{subsubsection.2.3.1.14}
\contentsline {subsubsection}{\numberline {2.3.1.15}Unidad 15. Estad\IeC {\'\i }stica}{35}{subsubsection.2.3.1.15}
\contentsline {subsection}{\numberline {2.3.2}2\IeC {\textordmasculine }ESO Matem\IeC {\'a}ticas}{36}{subsection.2.3.2}
\contentsline {subsubsection}{\numberline {2.3.2.1}Unidad 1: N\IeC {\'u}meros naturales y enteros}{36}{subsubsection.2.3.2.1}
\contentsline {subsubsection}{\numberline {2.3.2.2}Unidad 2: N\IeC {\'u}meros decimales y fracciones}{37}{subsubsection.2.3.2.2}
\contentsline {subsubsection}{\numberline {2.3.2.3}Unidad 3: Operaciones con fracciones}{38}{subsubsection.2.3.2.3}
\contentsline {subsubsection}{\numberline {2.3.2.4}Unidad 4: Proporcionalidad}{40}{subsubsection.2.3.2.4}
\contentsline {subsubsection}{\numberline {2.3.2.5}Unidad 5: Porcentajes}{43}{subsubsection.2.3.2.5}
\contentsline {subsubsection}{\numberline {2.3.2.6}Unidad 6: \IeC {\'A}lgebra}{46}{subsubsection.2.3.2.6}
\contentsline {subsubsection}{\numberline {2.3.2.7}Unidad 7: Ecuaciones}{49}{subsubsection.2.3.2.7}
\contentsline {subsubsection}{\numberline {2.3.2.8}Unidad 8: Sistemas de Ecuaciones}{51}{subsubsection.2.3.2.8}
\contentsline {subsubsection}{\numberline {2.3.2.9}Unidad 9: Teorema de Pit\IeC {\'a}goras}{52}{subsubsection.2.3.2.9}
\contentsline {subsubsection}{\numberline {2.3.2.10}Unidad 10: Semejanza}{54}{subsubsection.2.3.2.10}
\contentsline {subsubsection}{\numberline {2.3.2.11}Unidad 11: Cuerpos Geom\IeC {\'e}tricos}{55}{subsubsection.2.3.2.11}
\contentsline {subsubsection}{\numberline {2.3.2.12}Unidad 12: Medida del volumen}{56}{subsubsection.2.3.2.12}
\contentsline {subsubsection}{\numberline {2.3.2.13}Unidad 13: Funciones}{57}{subsubsection.2.3.2.13}
\contentsline {subsubsection}{\numberline {2.3.2.14}Unidad 14: Azar y probabilidad}{58}{subsubsection.2.3.2.14}
\contentsline {subsection}{\numberline {2.3.3}3\IeC {\textordmasculine }ESO Matem\IeC {\'a}ticas}{59}{subsection.2.3.3}
\contentsline {subsubsection}{\numberline {2.3.3.1}Unidad 1. N\IeC {\'u}meros para contar.}{59}{subsubsection.2.3.3.1}
\contentsline {subsubsection}{\numberline {2.3.3.2}Unidad 2. Potencias y ra\IeC {\'\i }ces}{60}{subsubsection.2.3.3.2}
\contentsline {subsubsection}{\numberline {2.3.3.3}Unidad 3. Problemas aritm\IeC {\'e}ticos}{61}{subsubsection.2.3.3.3}
\contentsline {subsubsection}{\numberline {2.3.3.4}Unidad 4. Progresiones}{63}{subsubsection.2.3.3.4}
\contentsline {subsubsection}{\numberline {2.3.3.5}Unidad 5. El lenguaje algebraico}{65}{subsubsection.2.3.3.5}
\contentsline {subsubsection}{\numberline {2.3.3.6}Unidad 6. Ecuaciones}{65}{subsubsection.2.3.3.6}
\contentsline {subsubsection}{\numberline {2.3.3.7}Unidad 7. Sistemas de ecuaciones}{66}{subsubsection.2.3.3.7}
\contentsline {subsubsection}{\numberline {2.3.3.8}Unidad 8. Funciones. Caracter\IeC {\'\i }sticas}{66}{subsubsection.2.3.3.8}
\contentsline {subsubsection}{\numberline {2.3.3.9}Unidad 9. Funciones lineales y cuadr\IeC {\'a}ticas}{67}{subsubsection.2.3.3.9}
\contentsline {subsubsection}{\numberline {2.3.3.10}Unidad 10. Problemas m\IeC {\'e}tricos en el plano}{68}{subsubsection.2.3.3.10}
\contentsline {subsubsection}{\numberline {2.3.3.11}Unidad 11. Cuerpos geom\IeC {\'e}tricos}{69}{subsubsection.2.3.3.11}
\contentsline {subsubsection}{\numberline {2.3.3.12}Unidad 12. Transformaciones geom\IeC {\'e}tricas}{70}{subsubsection.2.3.3.12}
\contentsline {subsubsection}{\numberline {2.3.3.13}Unidad 13. Tablas y gr\IeC {\'a}ficos estad\IeC {\'\i }sticos}{71}{subsubsection.2.3.3.13}
\contentsline {subsubsection}{\numberline {2.3.3.14}Unidad 14. Par\IeC {\'a}metros estad\IeC {\'\i }sticos}{72}{subsubsection.2.3.3.14}
\contentsline {subsubsection}{\numberline {2.3.3.15}Unidad 15. Azar y probabilidad}{72}{subsubsection.2.3.3.15}
\contentsline {subsection}{\numberline {2.3.4}4\IeC {\textordmasculine }ESO Matem\IeC {\'a}ticas A}{73}{subsection.2.3.4}
\contentsline {subsubsection}{\numberline {2.3.4.1}Unidad 0. Entr\IeC {\'e}nate resolviendo problemas.}{73}{subsubsection.2.3.4.1}
\contentsline {subsubsection}{\numberline {2.3.4.2}Unidad 1. N\IeC {\'u}meros Naturales, Enteros}{74}{subsubsection.2.3.4.2}
\contentsline {subsubsection}{\numberline {2.3.4.3}Unidad 2. N\IeC {\'u}meros Decimales.}{75}{subsubsection.2.3.4.3}
\contentsline {subsubsection}{\numberline {2.3.4.4}Unidad 3. N\IeC {\'u}meros Reales.}{76}{subsubsection.2.3.4.4}
\contentsline {subsubsection}{\numberline {2.3.4.5}Unidad 4. Polinomios.}{77}{subsubsection.2.3.4.5}
\contentsline {subsubsection}{\numberline {2.3.4.6}Unidad 5. Ecuaciones.}{77}{subsubsection.2.3.4.6}
\contentsline {subsubsection}{\numberline {2.3.4.7}Unidad 6. Sistemas de Ecuaciones}{79}{subsubsection.2.3.4.7}
\contentsline {subsubsection}{\numberline {2.3.4.8}Unidad 7. Funciones. Caracter\IeC {\'\i }sticas.}{81}{subsubsection.2.3.4.8}
\contentsline {subsubsection}{\numberline {2.3.4.9}Unidad 8. Funciones Elementales.}{83}{subsubsection.2.3.4.9}
\contentsline {subsubsection}{\numberline {2.3.4.10}Unidad 9. Aplicaciones de la Semejanza.}{85}{subsubsection.2.3.4.10}
\contentsline {subsubsection}{\numberline {2.3.4.11}Unidad 10. Estad\IeC {\'\i }stica.}{87}{subsubsection.2.3.4.11}
\contentsline {subsubsection}{\numberline {2.3.4.12}Unidad 11. Distribuciones Bidimensionales.}{88}{subsubsection.2.3.4.12}
\contentsline {subsubsection}{\numberline {2.3.4.13}Unidad 12. Probabilidad.}{90}{subsubsection.2.3.4.13}
\contentsline {subsection}{\numberline {2.3.5}4\IeC {\textordmasculine }ESO Matem\IeC {\'a}ticas B}{91}{subsection.2.3.5}
\contentsline {subsubsection}{\numberline {2.3.5.1}Unidad 1. N\IeC {\'u}meros reales.}{91}{subsubsection.2.3.5.1}
\contentsline {subsubsection}{\numberline {2.3.5.2}Unidad 2. Polinomios}{92}{subsubsection.2.3.5.2}
\contentsline {subsubsection}{\numberline {2.3.5.3}Unidad 3. Ecuaciones, inecuaciones}{92}{subsubsection.2.3.5.3}
\contentsline {subsubsection}{\numberline {2.3.5.4}Unidad 4. Semejanza. Aplicaciones.}{94}{subsubsection.2.3.5.4}
\contentsline {subsubsection}{\numberline {2.3.5.5}Unidad 5. Trigonometr\IeC {\'\i }a.}{94}{subsubsection.2.3.5.5}
\contentsline {subsubsection}{\numberline {2.3.5.6}Unidad 6. Geometr\IeC {\'\i }a Anal\IeC {\'\i }tica.}{95}{subsubsection.2.3.5.6}
\contentsline {subsubsection}{\numberline {2.3.5.7}Unidad 7. Funciones I.}{97}{subsubsection.2.3.5.7}
\contentsline {subsubsection}{\numberline {2.3.5.8}Unidad 8. Funciones II.}{97}{subsubsection.2.3.5.8}
\contentsline {subsubsection}{\numberline {2.3.5.9}Unidad 9. Estad\IeC {\'\i }stica.}{98}{subsubsection.2.3.5.9}
\contentsline {subsubsection}{\numberline {2.3.5.10}Unidad 10. Distribuciones bidimensionales.}{99}{subsubsection.2.3.5.10}
\contentsline {subsubsection}{\numberline {2.3.5.11}Unidad 11. Combinatoria.}{100}{subsubsection.2.3.5.11}
\contentsline {subsubsection}{\numberline {2.3.5.12}Unidad 12. C\IeC {\'a}lculo de probabilidades.}{101}{subsubsection.2.3.5.12}
\contentsline {subsection}{\numberline {2.3.6}Matem\IeC {\'a}ticas para la toma de decisiones}{101}{subsection.2.3.6}
\contentsline {subsubsection}{\numberline {2.3.6.1}Unidad 1. Aritm\IeC {\'e}tica modular y criptograf\IeC {\'\i }a}{101}{subsubsection.2.3.6.1}
\contentsline {subsubsection}{\numberline {2.3.6.2}Unidad 2. Teor\IeC {\'\i }a de grafos}{102}{subsubsection.2.3.6.2}
\contentsline {subsubsection}{\numberline {2.3.6.3}Unidad 3. Teor\IeC {\'\i }a de juegos}{102}{subsubsection.2.3.6.3}
\contentsline {section}{\numberline {2.4}Procedimientos e instrumentos de evaluaci\IeC {\'o}n, con especial atenci\IeC {\'o}n al car\IeC {\'a}cter forma tivo de la evaluaci\IeC {\'o}n y a su vinculaci\IeC {\'o}n con los criterios de evaluaci\IeC {\'o}n.}{104}{section.2.4}
\contentsline {section}{\numberline {2.5}Criterios de calificaci\IeC {\'o}n.}{104}{section.2.5}
\contentsline {section}{\numberline {2.6}Caracter\IeC {\'\i }sticas de la evaluaci\IeC {\'o}n inicial, criterios para su valoraci\IeC {\'o}n, as\IeC {\'\i } como consecuencias de sus resultados en la programaci\IeC {\'o}n did\IeC {\'a}ctica y, en su caso, el dise\IeC {\~n}o de los instrumentos de evaluaci\IeC {\'o}n.}{104}{section.2.6}
\contentsline {section}{\numberline {2.7}Actuaciones generales de atenci\IeC {\'o}n a las diferencias individuales y adaptaciones curri culares para el alumnado que las precise.}{104}{section.2.7}
\contentsline {section}{\numberline {2.8}Plan de seguimiento personal para el alumnado que no promociona, de acuerdo con lo establecido en al art\IeC {\'\i }culo 19.4 de esta Orden.}{104}{section.2.8}
\contentsline {section}{\numberline {2.9}Plan de refuerzo personalizado para materias o \IeC {\'a}mbitos no superados, de acuerdo con lo establecido en al art\IeC {\'\i }culo 20 de esta Orden.}{104}{section.2.9}
\contentsline {section}{\numberline {2.10}Estrategias did\IeC {\'a}cticas y metodol\IeC {\'o}gicas: Organizaci\IeC {\'o}n, recursos, agrupamientos, enfo ques de ense\IeC {\~n}anza, criterios para la elaboraci\IeC {\'o}n de situaciones de aprendizaje y otros elementos que se consideren necesarios.}{104}{section.2.10}
\contentsline {section}{\numberline {2.11}Concreci\IeC {\'o}n del Plan Lector establecido en el Proyecto Curricular de Etapa.}{104}{section.2.11}
\contentsline {section}{\numberline {2.12}Concreci\IeC {\'o}n del Plan de implementaci\IeC {\'o}n de elementos transversales establecido en el Proyecto Curricular de Etapa.}{104}{section.2.12}
\contentsline {section}{\numberline {2.13}Concreci\IeC {\'o}n del Plan de utilizaci\IeC {\'o}n de las tecnolog\IeC {\'\i }as digitales establecido en el Pro yecto Curricular de Etapa.}{104}{section.2.13}
\contentsline {section}{\numberline {2.14}En su caso, medidas complementarias que se plantean para el tratamiento de las materias o \IeC {\'a}mbitos dentro de proyectos o itinerarios biling\IeC {\"u}es o pluriling\IeC {\"u}es, o de proyectos de lenguas y modalidades ling\IeC {\"u}\IeC {\'\i }sticas propias de la Comunidad Aut\IeC {\'o}noma de Arag\IeC {\'o}n.}{104}{section.2.14}
\contentsline {section}{\numberline {2.15}Mecanismos de revisi\IeC {\'o}n, evaluaci\IeC {\'o}n y modificaci\IeC {\'o}n de las programaciones did\IeC {\'a}cticas en relaci\IeC {\'o}n con los resultados acad\IeC {\'e}micos y procesos de mejora.}{104}{section.2.15}
\contentsline {section}{\numberline {2.16}Actividades complementarias y extraescolares programadas por cada departamento, equipos did\IeC {\'a}ctico u \IeC {\'o}rgano de coordinaci\IeC {\'o}n did\IeC {\'a}ctica que corresponda, de acuerdo con el programa anual de actividades complementarias y extraescolares establecidas por el centro, concretando la incidencia de las mismas en la evaluaci\IeC {\'o}n del alumnado.}{104}{section.2.16}
\contentsline {chapter}{\numberline {3}Programaci\IeC {\'o}n de Bachillerato}{105}{chapter.3}
\contentsline {section}{\numberline {3.1}Objetivos generales del Bachillerato}{105}{section.3.1}
\contentsline {section}{\numberline {3.2}Competencias espec\IeC {\'\i }ficas y criterios de evaluaci\IeC {\'o}n}{106}{section.3.2}
\contentsline {subsection}{\numberline {3.2.1}Matem\IeC {\'a}ticas I}{106}{subsection.3.2.1}
\contentsline {subsubsection}{\numberline {3.2.1.1}CE.M.1. Modelizar y resolver problemas de la vida cotidiana y de la ciencia y la tecnolog\IeC {\'\i }a aplicando diferentes estrategias y formas de razonamiento para obtener posibles soluciones.}{106}{subsubsection.3.2.1.1}
\contentsline {subsubsection}{\numberline {3.2.1.2}CE.M.2. Verificar la validez de las posibles soluciones de un problema empleando el razonamiento y la argumentaci\IeC {\'o}n para contrastar su idoneidad.}{106}{subsubsection.3.2.1.2}
\contentsline {subsubsection}{\numberline {3.2.1.3}CE.M.3. Formular o investigar conjeturas o problemas, utilizando el razonamiento y la argumentaci\IeC {\'o}n, con apoyo de herramientas tecnol\IeC {\'o}gicas, para generar nuevo conocimiento matem\IeC {\'a}tico.}{106}{subsubsection.3.2.1.3}
\contentsline {subsubsection}{\numberline {3.2.1.4}CE.M.4. Utilizar el pensamiento computacional de forma eficaz, modificando, creando y generalizando algoritmos, para modelizar y resolver situaciones de la vida cotidiana y del \IeC {\'a}mbito de la Ciencia y la Tecnolog\IeC {\'\i }a.}{106}{subsubsection.3.2.1.4}
\contentsline {subsubsection}{\numberline {3.2.1.5}CE.M.5. Establecer, investigar y utilizar conexiones entre las diferentes ideas matem\IeC {\'a}ticas estableciendo v\IeC {\'\i }nculos entre conceptos, procedimientos, argumentos y modelos para dar significado y estructurar el aprendizaje matem\IeC {\'a}tico.}{107}{subsubsection.3.2.1.5}
\contentsline {subsubsection}{\numberline {3.2.1.6}CE.M.6. Descubrir los v\IeC {\'\i }nculos de las matem\IeC {\'a}ticas con otras materias y profundizar en sus conexiones, interrelacionando conceptos y procedimientos, para modelizar, resolver problemas y desarrollar la capacidad cr\IeC {\'\i }tica, creativa e innovadora en situaciones diversas.}{107}{subsubsection.3.2.1.6}
\contentsline {subsubsection}{\numberline {3.2.1.7}CE.M.7. Representar conceptos, procedimientos e informaci\IeC {\'o}n matem\IeC {\'a}ticos seleccionando diferentes tecnolog\IeC {\'\i }as, para visualizar ideas y estructurar razonamientos matem\IeC {\'a}ticos.}{107}{subsubsection.3.2.1.7}
\contentsline {subsubsection}{\numberline {3.2.1.8}CE.M.8. Comunicar las ideas matem\IeC {\'a}ticas, de forma individual y colectiva, empleando el soporte, la terminolog\IeC {\'\i }a y el rigor apropiados, para organizar y consolidar el pensamiento matem\IeC {\'a}tico.}{107}{subsubsection.3.2.1.8}
\contentsline {subsubsection}{\numberline {3.2.1.9}CE.M.9. Utilizar destrezas personales y sociales, identificando y gestionando las propias emociones, respetando las de los dem\IeC {\'a}s y organizando activamente el trabajo en equipos heterog\IeC {\'e}neos, aprendiendo del error como parte del proceso de aprendizaje y afrontando situaciones de incertidumbre, para perseverar en la consecuci\IeC {\'o}n de objetivos en el aprendizaje de las matem\IeC {\'a}ticas.}{107}{subsubsection.3.2.1.9}
\contentsline {subsection}{\numberline {3.2.2}Matem\IeC {\'a}ticas II}{108}{subsection.3.2.2}
\contentsline {subsubsection}{\numberline {3.2.2.1}CE.M.1. Modelizar y resolver problemas de la vida cotidiana y de la ciencia y la tecnolog\IeC {\'\i }a aplicando diferentes estrategias y formas de razonamiento para obtener posibles soluciones.}{108}{subsubsection.3.2.2.1}
\contentsline {subsubsection}{\numberline {3.2.2.2}CE.M.2. Verificar la validez de las posibles soluciones de un problema empleando el razonamiento y la argumentaci\IeC {\'o}n para contrastar su idoneidad.}{108}{subsubsection.3.2.2.2}
\contentsline {subsubsection}{\numberline {3.2.2.3}CE.M.3. Formular o investigar conjeturas o problemas, utilizando el razonamiento y la argumentaci\IeC {\'o}n, con apoyo de herramientas tecnol\IeC {\'o}gicas, para generar nuevo conocimiento matem\IeC {\'a}tico.}{108}{subsubsection.3.2.2.3}
\contentsline {subsubsection}{\numberline {3.2.2.4}CE.M.4. Utilizar el pensamiento computacional de forma eficaz, modificando, creando y generalizando algoritmos, para modelizar y resolver situaciones de la vida cotidiana y del \IeC {\'a}mbito de la Ciencia y la Tecnolog\IeC {\'\i }a.}{108}{subsubsection.3.2.2.4}
\contentsline {subsubsection}{\numberline {3.2.2.5}CE.M.5. Establecer, investigar y utilizar conexiones entre las diferentes ideas matem\IeC {\'a}ticas estableciendo v\IeC {\'\i }nculos entre conceptos, procedimientos, argumentos y modelos para dar significado y estructurar el aprendizaje matem\IeC {\'a}tico.}{108}{subsubsection.3.2.2.5}
\contentsline {subsubsection}{\numberline {3.2.2.6}CE.M.6. Descubrir los v\IeC {\'\i }nculos de las matem\IeC {\'a}ticas con otras materias y profundizar en sus conexiones, interrelacionando conceptos y procedimientos, para modelizar, resolver problemas y desarrollar la capacidad cr\IeC {\'\i }tica, creativa e innovadora en situaciones diversas.}{109}{subsubsection.3.2.2.6}
\contentsline {subsubsection}{\numberline {3.2.2.7}CE.M.7. Representar conceptos, procedimientos e informaci\IeC {\'o}n matem\IeC {\'a}ticos seleccionando diferentes tecnolog\IeC {\'\i }as, para visualizar ideas y estructurar razonamientos matem\IeC {\'a}ticos.}{109}{subsubsection.3.2.2.7}
\contentsline {subsubsection}{\numberline {3.2.2.8}CE.M.8. Comunicar las ideas matem\IeC {\'a}ticas, de forma individual y colectiva, empleando el soporte, la terminolog\IeC {\'\i }a y el rigor apropiados, para organizar y consolidar el pensamiento matem\IeC {\'a}tico.}{109}{subsubsection.3.2.2.8}
\contentsline {subsubsection}{\numberline {3.2.2.9}CE.M.9. Utilizar destrezas personales y sociales, identificando y gestionando las propias emociones, respetando las de los dem\IeC {\'a}s y organizando activamente el trabajo en equipos heterog\IeC {\'e}neos, aprendiendo del error como parte del proceso de aprendizaje y afrontando situaciones de incertidumbre, para perseverar en la consecuci\IeC {\'o}n de objetivos en el aprendizaje de las matem\IeC {\'a}ticas.}{109}{subsubsection.3.2.2.9}
\contentsline {subsection}{\numberline {3.2.3}Matem\IeC {\'a}ticas aplicadas a las Ciencias Sociales I}{110}{subsection.3.2.3}
\contentsline {subsubsection}{\numberline {3.2.3.1}CE.MCS.1. Modelizar y resolver problemas de la vida cotidiana y de las Ciencias Sociales aplicando diferentes estrategias y formas de razonamiento para obtener posibles soluciones.}{110}{subsubsection.3.2.3.1}
\contentsline {subsubsection}{\numberline {3.2.3.2}CE.MCS.2. Verificar la validez de las posibles soluciones de un problema empleando el razonamiento y la argumentaci\IeC {\'o}n para contrastar su idoneidad.}{110}{subsubsection.3.2.3.2}
\contentsline {subsubsection}{\numberline {3.2.3.3}CE.MCS.3. Formular o investigar conjeturas o problemas, utilizando el razonamiento y la argumentaci\IeC {\'o}n, con apoyo de herramientas tecnol\IeC {\'o}gicas, para generar nuevo conocimiento matem\IeC {\'a}tico.}{110}{subsubsection.3.2.3.3}
\contentsline {subsubsection}{\numberline {3.2.3.4}CE.MCS.4. Utilizar el pensamiento computacional de forma eficaz, modificando, creando y generalizando algoritmos que resuelvan problemas mediante el uso de las matem\IeC {\'a}ticas, para modelizar y resolver situaciones de la vida cotidiana y del \IeC {\'a}mbito de las ciencias sociales.}{110}{subsubsection.3.2.3.4}
\contentsline {subsubsection}{\numberline {3.2.3.5}CE.MCS.5. Establecer, investigar y utilizar conexiones entre las diferentes ideas matem\IeC {\'a}ticas estableciendo v\IeC {\'\i }nculos entre conceptos, procedimientos, argumentos y modelos para dar significado y estructurar el aprendizaje matem\IeC {\'a}tico.}{110}{subsubsection.3.2.3.5}
\contentsline {subsubsection}{\numberline {3.2.3.6}CE.MCS.6. Descubrir los v\IeC {\'\i }nculos de las matem\IeC {\'a}ticas con otras materias y profundizar en sus conexiones, interrelacionando conceptos y procedimientos, para modelizar, resolver problemas y desarrollar la capacidad cr\IeC {\'\i }tica, creativa e innovadora en situaciones diversas.}{111}{subsubsection.3.2.3.6}
\contentsline {subsubsection}{\numberline {3.2.3.7}CE.MCS.7. Representar conceptos, procedimientos e informaci\IeC {\'o}n matem\IeC {\'a}ticos seleccionando diferentes tecnolog\IeC {\'\i }as, para visualizar ideas y estructurar razonamientos matem\IeC {\'a}ticos.}{111}{subsubsection.3.2.3.7}
\contentsline {subsubsection}{\numberline {3.2.3.8}CE.MCS.8. Comunicar las ideas matem\IeC {\'a}ticas, de forma individual y colectiva, empleando el soporte, la terminolog\IeC {\'\i }a y el rigor apropiados, para organizar y consolidar el pensamiento matem\IeC {\'a}tico.}{111}{subsubsection.3.2.3.8}
\contentsline {subsubsection}{\numberline {3.2.3.9}CE.MCS.9. Utilizar destrezas personales y sociales, identificando y gestionando las propias emociones, respetando las de los dem\IeC {\'a}s y organizando activamente el trabajo en equipos heterog\IeC {\'e}neos, aprendiendo del error como parte del proceso de aprendizaje y afrontando situaciones de incertidumbre, para perseverar en la consecuci\IeC {\'o}n de objetivos en el aprendizaje de las matem\IeC {\'a}ticas.}{111}{subsubsection.3.2.3.9}
\contentsline {subsection}{\numberline {3.2.4}Matem\IeC {\'a}ticas aplicadas a las Ciencias Sociales II}{112}{subsection.3.2.4}
\contentsline {subsubsection}{\numberline {3.2.4.1}CE.MCS.1. Modelizar y resolver problemas de la vida cotidiana y de las Ciencias Sociales aplicando diferentes estrategias y formas de razonamiento para obtener posibles soluciones.}{112}{subsubsection.3.2.4.1}
\contentsline {subsubsection}{\numberline {3.2.4.2}CE.MCS.2. Verificar la validez de las posibles soluciones de un problema empleando el razonamiento y la argumentaci\IeC {\'o}n para contrastar su idoneidad.}{112}{subsubsection.3.2.4.2}
\contentsline {subsubsection}{\numberline {3.2.4.3}CE.MCS.3. Formular o investigar conjeturas o problemas, utilizando el razonamiento y la argumentaci\IeC {\'o}n, con apoyo de herramientas tecnol\IeC {\'o}gicas, para generar nuevo conocimiento matem\IeC {\'a}tico.}{112}{subsubsection.3.2.4.3}
\contentsline {subsubsection}{\numberline {3.2.4.4}CE.MCS.4. Utilizar el pensamiento computacional de forma eficaz, modificando, creando y generalizando algoritmos que resuelvan problemas mediante el uso de las matem\IeC {\'a}ticas, para modelizar y resolver situaciones de la vida cotidiana y del \IeC {\'a}mbito de las ciencias sociales.}{112}{subsubsection.3.2.4.4}
\contentsline {subsubsection}{\numberline {3.2.4.5}CE.MCS.5. Establecer, investigar y utilizar conexiones entre las diferentes ideas matem\IeC {\'a}ticas estableciendo v\IeC {\'\i }nculos entre conceptos, procedimientos, argumentos y modelos para dar significado y estructurar el aprendizaje matem\IeC {\'a}tico.}{112}{subsubsection.3.2.4.5}
\contentsline {subsubsection}{\numberline {3.2.4.6}CE.MCS.6. Descubrir los v\IeC {\'\i }nculos de las matem\IeC {\'a}ticas con otras materias y profundizar en sus conexiones, interrelacionando conceptos y procedimientos, para modelizar, resolver problemas y desarrollar la capacidad cr\IeC {\'\i }tica, creativa e innovadora en situaciones diversas.}{113}{subsubsection.3.2.4.6}
\contentsline {subsubsection}{\numberline {3.2.4.7}CE.MCS.7. Representar conceptos, procedimientos e informaci\IeC {\'o}n matem\IeC {\'a}ticos seleccionando diferentes tecnolog\IeC {\'\i }as, para visualizar ideas y estructurar razonamientos matem\IeC {\'a}ticos.}{113}{subsubsection.3.2.4.7}
\contentsline {subsubsection}{\numberline {3.2.4.8}CE.MCS.8. Comunicar las ideas matem\IeC {\'a}ticas, de forma individual y colectiva, empleando el soporte, la terminolog\IeC {\'\i }a y el rigor apropiados, para organizar y consolidar el pensamiento matem\IeC {\'a}tico.}{113}{subsubsection.3.2.4.8}
\contentsline {subsubsection}{\numberline {3.2.4.9}CE.MCS.9. Utilizar destrezas personales y sociales, identificando y gestionando las propias emociones, respetando las de los dem\IeC {\'a}s y organizando activamente el trabajo en equipos heterog\IeC {\'e}neos, aprendiendo del error como parte del proceso de aprendizaje y afrontando situaciones de incertidumbre, para perseverar en la consecuci\IeC {\'o}n de objetivos en el aprendizaje de las matem\IeC {\'a}ticas.}{113}{subsubsection.3.2.4.9}
\contentsline {section}{\numberline {3.3}Concreci\IeC {\'o}n, agrupamiento y secuenciaci\IeC {\'o}n de los saberes b\IeC {\'a}sicos y de los criterios de evaluaci\IeC {\'o}n en unidades did\IeC {\'a}cticas}{114}{section.3.3}
\contentsline {subsection}{\numberline {3.3.1}1\IeC {\textordmasculine } Bachillerato Matem\IeC {\'a}ticas 1}{114}{subsection.3.3.1}
\contentsline {subsubsection}{\numberline {3.3.1.1}Unidad 1. Los N\IeC {\'u}meros Reales.}{114}{subsubsection.3.3.1.1}
\contentsline {subsubsection}{\numberline {3.3.1.2}Unidad 2. \IeC {\'A}lgebra.}{114}{subsubsection.3.3.1.2}
\contentsline {subsubsection}{\numberline {3.3.1.3}Unidad 3. Resoluci\IeC {\'o}n de tri\IeC {\'a}ngulos.}{115}{subsubsection.3.3.1.3}
\contentsline {subsubsection}{\numberline {3.3.1.4}Unidad 4. F\IeC {\'o}rmulas y funciones}{115}{subsubsection.3.3.1.4}
\contentsline {subsubsection}{\numberline {3.3.1.5}Unidad 5. N\IeC {\'u}meros Complejos.}{116}{subsubsection.3.3.1.5}
\contentsline {subsubsection}{\numberline {3.3.1.6}Unidad 6. Vectores.}{117}{subsubsection.3.3.1.6}
\contentsline {subsubsection}{\numberline {3.3.1.7}Unidad 7. Geometr\IeC {\'\i }a anal\IeC {\'\i }tica.}{118}{subsubsection.3.3.1.7}
\contentsline {subsubsection}{\numberline {3.3.1.8}Unidad 8. Lugares geom\IeC {\'e}tricos. C\IeC {\'o}nicas.}{119}{subsubsection.3.3.1.8}
\contentsline {subsubsection}{\numberline {3.3.1.9}Unidad 9. Funciones elementales.}{119}{subsubsection.3.3.1.9}
\contentsline {subsubsection}{\numberline {3.3.1.10}Unidad 10. L\IeC {\'\i }mites de funciones.}{120}{subsubsection.3.3.1.10}
\contentsline {subsubsection}{\numberline {3.3.1.11}Unidad 11. Derivadas.}{121}{subsubsection.3.3.1.11}
\contentsline {subsubsection}{\numberline {3.3.1.12}Unidad 12. Distribuciones Bidimensionales.}{121}{subsubsection.3.3.1.12}
\contentsline {subsubsection}{\numberline {3.3.1.13}Unidad 13. Combinatoria y probabilidad.}{122}{subsubsection.3.3.1.13}
\contentsline {subsection}{\numberline {3.3.2}1\IeC {\textordmasculine }Bachicherato Matem\IeC {\'a}ticas aplicadas a las Ciencias Sociales}{123}{subsection.3.3.2}
\contentsline {subsubsection}{\numberline {3.3.2.1}Unidad 1. Los N\IeC {\'u}meros Reales.}{123}{subsubsection.3.3.2.1}
\contentsline {subsubsection}{\numberline {3.3.2.2}Unidad 2. Aritm\IeC {\'e}tica Mercantil}{123}{subsubsection.3.3.2.2}
\contentsline {subsubsection}{\numberline {3.3.2.3}Unidad 3. \IeC {\'A}lgebra}{124}{subsubsection.3.3.2.3}
\contentsline {subsubsection}{\numberline {3.3.2.4}Unidad 4. Funciones I}{124}{subsubsection.3.3.2.4}
\contentsline {subsubsection}{\numberline {3.3.2.5}Unidad 5. Funciones II.}{125}{subsubsection.3.3.2.5}
\contentsline {subsubsection}{\numberline {3.3.2.6}Unidad 6. L\IeC {\'\i }mite de funciones.}{125}{subsubsection.3.3.2.6}
\contentsline {subsubsection}{\numberline {3.3.2.7}Unidad 7. Derivadas}{126}{subsubsection.3.3.2.7}
\contentsline {subsubsection}{\numberline {3.3.2.8}Unidad 8. Distribuciones bidimensionales}{127}{subsubsection.3.3.2.8}
\contentsline {subsubsection}{\numberline {3.3.2.9}Unidad 9. Combinatoria y probabilidad}{127}{subsubsection.3.3.2.9}
\contentsline {subsubsection}{\numberline {3.3.2.10}Unidad 10. Distribuciones de probabilidad}{128}{subsubsection.3.3.2.10}
\contentsline {subsubsection}{\numberline {3.3.2.11}Unidad 11. Distribuciones de probabilidad}{128}{subsubsection.3.3.2.11}
\contentsline {subsection}{\numberline {3.3.3}2\IeC {\textordmasculine }Bachillerato Matem\IeC {\'a}ticas 2}{129}{subsection.3.3.3}
\contentsline {subsubsection}{\numberline {3.3.3.1}Unidad 1. Sistemas de ecuaciones.}{129}{subsubsection.3.3.3.1}
\contentsline {subsubsection}{\numberline {3.3.3.2}Unidad 2. \IeC {\'A}lgebra de matrices}{130}{subsubsection.3.3.3.2}
\contentsline {subsubsection}{\numberline {3.3.3.3}Unidad 3. Determinantes}{130}{subsubsection.3.3.3.3}
\contentsline {subsubsection}{\numberline {3.3.3.4}Unidad 4. Resoluci\IeC {\'o}n de sistemas}{131}{subsubsection.3.3.3.4}
\contentsline {subsubsection}{\numberline {3.3.3.5}Unidad 5. Vectores en el espacio}{132}{subsubsection.3.3.3.5}
\contentsline {subsubsection}{\numberline {3.3.3.6}Unidad 6. Puntos, rectas y planos}{135}{subsubsection.3.3.3.6}
\contentsline {subsubsection}{\numberline {3.3.3.7}Unidad 7. Problemas m\IeC {\'e}tricos}{136}{subsubsection.3.3.3.7}
\contentsline {subsubsection}{\numberline {3.3.3.8}Unidad 8. L\IeC {\'\i }mites de funciones. Continuidad}{137}{subsubsection.3.3.3.8}
\contentsline {subsubsection}{\numberline {3.3.3.9}Unidad 9. Derivadas}{138}{subsubsection.3.3.3.9}
\contentsline {subsubsection}{\numberline {3.3.3.10}Unidad 10. Aplicaciones de las derivadas}{139}{subsubsection.3.3.3.10}
\contentsline {subsubsection}{\numberline {3.3.3.11}Unidad 11. Representaci\IeC {\'o}n de funciones}{139}{subsubsection.3.3.3.11}
\contentsline {subsubsection}{\numberline {3.3.3.12}Unidad 12. C\IeC {\'a}lculo de primitivas}{140}{subsubsection.3.3.3.12}
\contentsline {subsubsection}{\numberline {3.3.3.13}Unidad 13. La integral definida}{141}{subsubsection.3.3.3.13}
\contentsline {subsubsection}{\numberline {3.3.3.14}Unidad 14. Azar y probabilidad}{141}{subsubsection.3.3.3.14}
\contentsline {subsubsection}{\numberline {3.3.3.15}Unidad 15. Distribuciones de probabilidad}{142}{subsubsection.3.3.3.15}
\contentsline {subsection}{\numberline {3.3.4}2\IeC {\textordmasculine }Bachillerato Matem\IeC {\'a}ticas aplicadas a las Ciencias Socilaes}{143}{subsection.3.3.4}
\contentsline {subsubsection}{\numberline {3.3.4.1}Unidad 1. Sistemas de ecuaciones.}{143}{subsubsection.3.3.4.1}
\contentsline {subsubsection}{\numberline {3.3.4.2}Unidad 2. \IeC {\'A}lgebra de matrices.}{144}{subsubsection.3.3.4.2}
\contentsline {subsubsection}{\numberline {3.3.4.3}Unidad 3. Resoluci\IeC {\'o}n de sistemas}{144}{subsubsection.3.3.4.3}
\contentsline {subsubsection}{\numberline {3.3.4.4}Unidad 4. Programaci\IeC {\'o}n lineal.}{145}{subsubsection.3.3.4.4}
\contentsline {subsubsection}{\numberline {3.3.4.5}Unidad 5. L\IeC {\'\i }mite de funciones. Continuidad}{146}{subsubsection.3.3.4.5}
\contentsline {subsubsection}{\numberline {3.3.4.6}Unidad 6. Derivadas.}{146}{subsubsection.3.3.4.6}
\contentsline {subsubsection}{\numberline {3.3.4.7}Unidad 7. Aplicaciones de las derivadas.}{147}{subsubsection.3.3.4.7}
\contentsline {subsubsection}{\numberline {3.3.4.8}Unidad 8. Representaci\IeC {\'o}n de funciones.}{148}{subsubsection.3.3.4.8}
\contentsline {subsubsection}{\numberline {3.3.4.9}Unidad 9. Integrales.}{149}{subsubsection.3.3.4.9}
\contentsline {subsubsection}{\numberline {3.3.4.10}Unidad 10. Azar y probabilidad.}{149}{subsubsection.3.3.4.10}
\contentsline {subsubsection}{\numberline {3.3.4.11}Unidad 11. Las muestras estad\IeC {\'\i }sticas.}{150}{subsubsection.3.3.4.11}
\contentsline {subsubsection}{\numberline {3.3.4.12}Unidad 12. Inferencia estad\IeC {\'\i }stica.}{151}{subsubsection.3.3.4.12}
\contentsline {subsubsection}{\numberline {3.3.4.13}Unidad 13. Inferencia estad\IeC {\'\i }stica.}{152}{subsubsection.3.3.4.13}
\contentsline {section}{\numberline {3.4}Procedimientos e instrumentos de evaluaci\IeC {\'o}n, con especial atenci\IeC {\'o}n al car\IeC {\'a}cter forma tivo de la evaluaci\IeC {\'o}n y a su vinculaci\IeC {\'o}n con los criterios de evaluaci\IeC {\'o}n}{155}{section.3.4}
\contentsline {section}{\numberline {3.5}Criterios de calificaci\IeC {\'o}n}{155}{section.3.5}
\contentsline {section}{\numberline {3.6}Caracter\IeC {\'\i }sticas de la evaluaci\IeC {\'o}n inicial, criterios para su valoraci\IeC {\'o}n, as\IeC {\'\i } como conse cuencias de sus resultados en la programaci\IeC {\'o}n did\IeC {\'a}ctica y, en su caso, el dise\IeC {\~n}o de los instrumentos de evaluaci\IeC {\'o}n}{155}{section.3.6}
\contentsline {section}{\numberline {3.7}Actuaciones generales de atenci\IeC {\'o}n a las diferencias individuales}{155}{section.3.7}
\contentsline {section}{\numberline {3.8}Plan de recuperaci\IeC {\'o}n de materias pendientes}{155}{section.3.8}
\contentsline {section}{\numberline {3.9}Estrategias did\IeC {\'a}cticas y metodol\IeC {\'o}gicas: Organizaci\IeC {\'o}n, recursos, agrupamientos, enfo ques de ense\IeC {\~n}anza, criterios para la elaboraci\IeC {\'o}n de situaciones de aprendizaje y otros elementos que se consideren necesarios}{155}{section.3.9}
\contentsline {section}{\numberline {3.10}Concreci\IeC {\'o}n del Plan de implementaci\IeC {\'o}n de elementos transversales establecido en el Proyecto Curricular de Etapa}{155}{section.3.10}
\contentsline {section}{\numberline {3.11}Concreci\IeC {\'o}n del Plan de utilizaci\IeC {\'o}n de las Tecnolog\IeC {\'\i }as digitales establecido en el Proyecto Curricular de Etapa}{155}{section.3.11}
\contentsline {section}{\numberline {3.12}En su caso, medidas complementarias que se plantean para el tratamiento de las ma terias dentro de proyectos o itinerarios biling\IeC {\"u}es o pluriling\IeC {\"u}es o de proyectos de lenguas y modalidades ling\IeC {\"u}\IeC {\'\i }sticas propias de la comunidad aut\IeC {\'o}noma de Arag\IeC {\'o}n}{155}{section.3.12}
\contentsline {section}{\numberline {3.13}Mecanismos de revisi\IeC {\'o}n, evaluaci\IeC {\'o}n y modificaci\IeC {\'o}n de las programaciones Did\IeC {\'a}cticas en relaci\IeC {\'o}n con los resultados acad\IeC {\'e}micos y procesos de mejora}{155}{section.3.13}
\contentsline {section}{\numberline {3.14}Actividades complementarias y extraescolares programadas por cada departamento, equipo u \IeC {\'o}rgano de coordinaci\IeC {\'o}n did\IeC {\'a}ctica que corresponda, de acuerdo con el Programa anual de actividades complementarias y extraescolares establecidas por el centro, concretando la incidencia de las mismas en la evaluaci\IeC {\'o}n del alumnado.}{155}{section.3.14}
