\babel@toc {spanish}{}
\contentsline {section}{Normativa}{1}{section*.2}
\contentsline {section}{Resumen normativo relativo a departamentos did\IeC {\'a}cticos}{1}{section*.3}
\contentsline {section}{Resumen normativo relativo a la Comisi\IeC {\'o}n de Coordinaci\IeC {\'o}n Pedag\IeC {\'o}gica}{2}{section*.4}
\contentsline {section}{Programaciones did\IeC {\'a}cticas}{3}{section*.5}
